Galois Tech Talk
…
## VI for MARS
earth::evimp(mars)
##     nsubsets   gcv    rss
## x.4       15 100.0  100.0
## x.1       14  83.2   82.9
## x.2       14  83.2   82.9
## x.5       12  59.3   58.7
## x.3       10  43.5   42.8

# VI for LM
broom::tidy(lm)[, c("term", "statistic")]
## # A tibble: 56 x 2
##    term        statistic
##    <chr>           <dbl>
##  1 (Intercept)   -0.227 
##  2 x.1            4.12  
##  3 x.2            3.77  
##  4 x.3           -1.52  
##  5 x.4            5.43  
##  6 x.5            3.42  
##  7 x.6           -0.175 
##  8 x.7           -1.30  
##  9 x.8           -0.0225
## 10 x.9           -1.21  
## # … with 46 more rows
…
# VI for LM
vi(lm, scale = TRUE)
## # A tibble: 55 x 3
##    Variable Importance Sign 
##    <chr>         <dbl> <chr>
##  1 x.4           100   POS  
##  2 x.1            75.9 POS  
##  3 x.2            69.4 POS  
##  4 x.5            63.1 POS  
##  5 x.1:x.5        46.9 NEG  
##  6 x.3:x.5        44.7 POS  
##  7 x.2:x.6        43.6 NEG  
##  8 x.1:x.10       38.8 NEG  
##  9 x.2:x.8        34.8 POS  
## 10 x.3:x.4        33.9 NEG  
## # … with 45 more rows
…
